{
    "8636086425b6220a41ef5edbbe7a919e": {
        "type": "input_document",
        "id": 5222241857509015948,
        "access_hash": -7151808759155843916
    },
    "7577b425db3a8602f915b101c18ad1de": {
        "type": "input_document",
        "id": 5222241857509015945,
        "access_hash": 1602318450336487161
    },
    "b5ef1315e96802706c6205ca214fc8ee": {
        "type": "input_document",
        "id": 5222241857509015948,
        "access_hash": -7855539546836319470
    },
    "b4af78301284958f8d3029ab16710b13": {
        "type": "input_document",
        "id": 5222297889652361301,
        "access_hash": -4979146146684745584
    },
    "0994f58c62ac211a3889056994e618f8": {
        "type": "input_document",
        "id": 5222241857509015940,
        "access_hash": 5087026883435049100
    },
    "5ddf90d9a306430e76f4923b9a8a85c5": {
        "type": "input_document",
        "id": 5222241857509015952,
        "access_hash": -3807271744774392467
    },
    "339d913b5cb9156c311d650ee622b089": {
        "type": "input_document",
        "id": 5222297889652361396,
        "access_hash": 8728263331580689831
    }
}